{
  "name": "Rocket",
  "plural": "Rockets",
  "base": "PersistedModel",
  "idInjection": true,
  "options": {
    "validateUpsert": true
  },
  "properties": {
    "Engine": {
      "type": "string",
      "required": true
    },
    "Nozzle": {
      "type": "string",
      "required": true
    }
  },
  "validations": [],
  "relations": {},
  "acls": [],
  "methods": {}
}
